<svg width="16" height="16" viewBox="0 0 16 16" fill="none" xmlns="http://www.w3.org/2000/svg">
<path d="M2 7V4C2 2.89543 2.89543 2 4 2H7M14 7V4C14 2.89543 13.1046 2 12 2H9M2 9V12C2 13.1046 2.89543 14 4 14H7M14 9V12C14 13.1046 13.1046 14 12 14H9" stroke="#1B1F3B" stroke-opacity="0.8" stroke-width="1.5"/>
</svg>
