<svg width="16" height="16" viewBox="0 0 16 16" fill="none" xmlns="http://www.w3.org/2000/svg">
<path d="M9.41775 15.3063C9.40066 15.3478 9.37918 15.3673 9.36042 15.3787C9.33834 15.3921 9.3078 15.401 9.27277 15.3998C9.23774 15.3986 9.20789 15.3876 9.18678 15.3727C9.16886 15.36 9.14876 15.3391 9.13457 15.2965L7.24046 9.61419C7.10595 9.21068 6.78932 8.89405 6.38581 8.75954L0.703456 6.86542C0.660886 6.85123 0.639959 6.83114 0.627306 6.81322C0.612413 6.79211 0.601396 6.76226 0.600189 6.72723C0.598983 6.6922 0.60792 6.66166 0.621326 6.63958C0.632715 6.62082 0.652211 6.59934 0.693703 6.58225L15.1891 0.613552C15.3134 0.562393 15.4376 0.686637 15.3864 0.810874L9.41775 15.3063Z" fill="white" stroke="#26ABE0" stroke-width="1.20016"/>
</svg>
