<svg width="16" height="16" viewBox="0 0 16 16" fill="none" xmlns="http://www.w3.org/2000/svg">
<path d="M12.5926 6.36945C12.5926 11.7155 13.3621 14.132 8.18621 14.132C3.0097 14.132 3.79509 11.7155 3.79509 6.36945M13.5766 4.31992H2.80957M10.4764 4.31992C10.4764 4.31992 10.8287 1.80945 8.19255 1.80945C5.557 1.80945 5.90938 4.31992 5.90938 4.31992" stroke="#F6576F" stroke-width="1.5" stroke-linecap="round" stroke-linejoin="round"/>
</svg>
