<svg width="14" height="14" viewBox="0 0 14 14" fill="none" xmlns="http://www.w3.org/2000/svg">
<path d="M9 5.00012V9.00012M5 9.00012V5.00012M4.98438 2.1933L3.50153 1.57701C2.53054 1.18211 1.46875 1.89656 1.46875 2.94478V9.77397C1.46875 10.6321 1.98859 11.4047 2.7835 11.728L4.29175 12.3413C4.74416 12.5253 5.23956 12.577 5.72024 12.4904L9.01563 11.8027L10.4985 12.419C11.4695 12.8139 12.5313 12.0994 12.5313 11.0512V4.224C12.5313 3.36586 12.0114 2.59326 11.2165 2.27001L9.70825 1.65668C9.25584 1.47267 8.76044 1.42099 8.27976 1.50761L4.98438 2.1933Z" stroke="#1B1F3B" stroke-opacity="0.5" stroke-width="1.5" stroke-miterlimit="10" stroke-linecap="round" stroke-linejoin="round"/>
</svg>
