<svg width="16" height="16" viewBox="0 0 16 16" fill="none" xmlns="http://www.w3.org/2000/svg">
<path d="M14.1267 9.03241C14.5347 9.21094 14.8197 9.61812 14.8197 10.0919C14.8197 10.5729 14.5259 10.9853 14.108 11.1594L8.88626 13.383C8.61311 13.4968 8.31364 13.5597 7.99969 13.5597C7.68574 13.5597 7.38626 13.4968 7.11312 13.383L1.89139 11.1594C1.47347 10.9853 1.17969 10.5729 1.17969 10.0919C1.17969 9.61803 1.46486 9.21074 1.87293 9.03229M1.89139 4.40029L7.11312 2.17663C7.38626 2.06285 7.68574 2 7.99969 2C8.31364 2 8.61311 2.06285 8.88626 2.17666L14.108 4.40032C14.5259 4.57443 14.8197 4.98681 14.8197 5.4678C14.8197 5.94878 14.5259 6.36116 14.108 6.5353L8.88626 8.75894C8.61311 8.87274 8.31364 8.93559 7.99969 8.93559C7.68574 8.93559 7.38626 8.87274 7.11312 8.75894L1.89139 6.5353C1.47347 6.36116 1.17969 5.94878 1.17969 5.4678C1.17969 4.98681 1.47347 4.57443 1.89139 4.40029Z" stroke="#1B1F3B" stroke-opacity="0.5" stroke-width="1.5" stroke-miterlimit="10" stroke-linecap="round" stroke-linejoin="round"/>
</svg>
