<svg width="14" height="14" viewBox="0 0 14 14" fill="none" xmlns="http://www.w3.org/2000/svg">
<path d="M3.0339 13V11.9831M10.9661 11.9831H2.01695C1.45531 11.9831 1 11.5277 1 10.9661C1 10.8172 1.03201 10.6757 1.08954 10.5482L2.19603 8.09642C2.51487 7.38997 3.22544 6.8983 4.05085 6.8983H9.94915M10.9661 11.9831H11.9831C12.5447 11.9831 13 11.5277 13 10.9661C13 10.8172 12.968 10.6757 12.9104 10.5482L11.8039 8.09642C11.4851 7.38997 10.7746 6.8983 9.94915 6.8983M10.9661 11.9831V13M9.94915 6.8983V1M3.94915 4.86441V1" stroke="#1B1F3B" stroke-opacity="0.5" stroke-width="1.5" stroke-miterlimit="10" stroke-linecap="round" stroke-linejoin="round"/>
</svg>
