[
    {
        "name": "BMW",
        "append":false,
        "submenu":[
            {
                "name": "Germany",
                "append":false,
                "submenu":[
                    {
                        "id" :1,
                        "append":false,
                        "name":"Some Sample Map"
                    }
                ]
            },
            {
                "name": "Russia",
                "append":false,
                "submenu":[
                    {
                        "id" :1,
                        "append":false,
                        "name":"Some Sample Map"
                    }
                ]
            },
            {
                "name": "Some map",
                "append":false,
                "submenu":[
                    {
                        "id" :1,
                        "append":false,
                        "name":"Some Sample Map"
                    }
                ]
            }
        ]
    },
    {
        "name": "Lamborgini",
        "append":false,
        "submenu":[
            {
                "name": "Russia",
                "append":false,
                "submenu":[
                    {
                        "id" :1,
                        "append":false,
                        "name":"Some Sample Map"
                    }
                ]
            },
            {
                "name": "Some map",
                "append":false,
                "submenu":[
                    {
                        "id" :1,
                        "append":false,
                        "name":"Some Sample Map"
                    }
                ]
            }
        ]
    }
]